ISSS608-VAA - MC1
…
#Preparing of Tuna Graphs
tuna_graph <- tbl_graph(nodes = tuna_nodes,
                        edges = tuna_edges_aggregated, 
                        directed = TRUE)

tuna_graph %>%
  activate(edges) %>%
  arrange(desc(Weight))

# A tbl_graph: 29 nodes and 28 edges
#
# A directed acyclic multigraph with 8 components
#
# A tibble: 28 × 4
   from    to monthyear      Weight
  <int> <int> <chr>           <int>
1     1     2 August 2034        58
2     1     2 September 2034     36
3    12    13 October 2034       15
4     3     4 September 2034     12
5     5    19 November 2034      11
6     1     2 October 2034       10
# ℹ 22 more rows
#
# A tibble: 29 × 3
  id                               shpcountry rcvcountry
  <chr>                            <chr>      <chr>     
1 Andhra Pradesh  Sp Worldwide     Utoporiana <NA>      
2 Jharkhand Sea  S.p.A. United     <NA>       -27       
3 Dutch Mussels Pic Marine biology Rio Isla   -27       
# ℹ 26 more rows

Show the code

tuna_graph

# A tbl_graph: 29 nodes and 28 edges
#
# A directed acyclic multigraph with 8 components
#
# A tibble: 29 × 3
  id                                            shpcountry rcvcountry
  <chr>                                         <chr>      <chr>     
1 Andhra Pradesh  Sp Worldwide                  Utoporiana <NA>      
2 Jharkhand Sea  S.p.A. United                  <NA>       -27       
3 Dutch Mussels Pic Marine biology              Rio Isla   -27       
4 Congo Rapids   Ltd. Corporation               <NA>       Azurionix 
5 Brisa Marina Surfboard AB Marine conservation -27        <NA>      
6 Mar de la Felicidad Inc Motorboat             <NA>       -27       
# ℹ 23 more rows
#
# A tibble: 28 × 4
   from    to monthyear      Weight
  <int> <int> <chr>           <int>
1     1     2 August 2034        58
2     1     2 October 2034       10
3     1     2 September 2034     36
# ℹ 25 more rows
…
# Preparing of MC2 Graphs
MC2_graph <- tbl_graph(nodes = MC2_nodes_extracted,
                       edges = MC2_edges_aggregated,
                       directed = TRUE)

MC2_graph %>%
  activate(edges) %>%
  arrange(desc(Weight))

# A tbl_graph: 58 nodes and 118 edges
#
# A directed acyclic multigraph with 13 components
#
# A tibble: 118 × 5
   from    to hscode  year Weight
  <int> <int> <chr>  <dbl>  <int>
1     7    40 841810  2034   6844
2     7    40 841810  2033   6185
3    30    40 950300  2030   6114
4     9    44 870324  2028   3547
5    31    56 304620  2031   3471
6     9    43 870323  2028   3237
# ℹ 112 more rows
#
# A tibble: 58 × 1
  id                             
  <chr>                          
1 Aqua Mermaid Corporation Export
2 Bahía del Este Oyj Transit     
3 Beachcombers NV and Son's      
# ℹ 55 more rows

Show the code

MC2_graph

# A tbl_graph: 58 nodes and 118 edges
#
# A directed acyclic multigraph with 13 components
#
# A tibble: 58 × 1
  id                                   
  <chr>                                
1 Aqua Mermaid Corporation Export      
2 Bahía del Este Oyj Transit           
3 Beachcombers NV and Son's            
4 Blue Nile  N.V. Marine               
5 Caracola del Este Corporation Express
6 Coastal Cruisers Pic Shipping        
# ℹ 52 more rows
#
# A tibble: 118 × 5
   from    to hscode  year Weight
  <int> <int> <chr>  <dbl>  <int>
1     1    33 761010  2031   1294
2     2    34 611595  2029   1123
3     3    35 381600  2033   1078
# ℹ 115 more rows
…
