ISSS608-VAA - Take-home Exercise 1
…
Low

Show the code

#Extracting the Date from the Timestamp data
financial_data$Month_Yr <- as.Date(financial_data$timestamp, "%Y-%m")

Warning in as.POSIXlt.POSIXct(x, tz = tz): unknown timezone '%Y-%m'

Show the code

#financial_data_cleaned$date_component <- as.Date(financial_data$timestamp,'%Y-%m-%d')
financial_data

# A tibble: 1,513,636 × 5
   participantId timestamp           category  amount Month_Yr  
           <dbl> <dttm>              <chr>      <dbl> <date>    
 1             0 2022-03-01 00:00:00 Wage      2473.  2022-03-01
 2             0 2022-03-01 00:00:00 Shelter   -555.  2022-03-01
 3             0 2022-03-01 00:00:00 Education  -38.0 2022-03-01
 4             1 2022-03-01 00:00:00 Wage      2047.  2022-03-01
 5             1 2022-03-01 00:00:00 Shelter   -555.  2022-03-01
 6             1 2022-03-01 00:00:00 Education  -38.0 2022-03-01
 7             2 2022-03-01 00:00:00 Wage      2437.  2022-03-01
 8             2 2022-03-01 00:00:00 Shelter   -557.  2022-03-01
 9             2 2022-03-01 00:00:00 Education  -12.8 2022-03-01
10             3 2022-03-01 00:00:00 Wage      2367.  2022-03-01
# … with 1,513,626 more rows
…
yearly_financials <- df1 %>%
  group_by(participantId, category) %>% 
  summarise(Total = sum(amount), householdSize = unique(householdSize), haveKids = unique(haveKids), age = unique(age), educationLevel = unique(educationLevel), interestGroup = unique(interestGroup), joviality = unique(joviality))

`summarise()` has grouped output by 'participantId'. You can override using the
`.groups` argument.

Show the code

yearly_financials

# A tibble: 4,142 × 9
# Groups:   participantId [1,011]
   participantId category    Total house…¹ haveK…²   age educa…³ inter…⁴ jovia…⁵
           <dbl> <chr>       <dbl>   <dbl> <lgl>   <dbl> <chr>   <chr>     <dbl>
 1             0 Education   -494.       3 TRUE       36 HighSc… H       0.00163
 2             0 Food       -3142.       3 TRUE       36 HighSc… H       0.00163
 3             0 Recreati…  -4384.       3 TRUE       36 HighSc… H       0.00163
 4             0 Shelter    -7215.       3 TRUE       36 HighSc… H       0.00163
 5             0 Wage      109817.       3 TRUE       36 HighSc… H       0.00163
 6             1 Education   -494.       3 TRUE       25 HighSc… B       0.328  
 7             1 Food       -3167.       3 TRUE       25 HighSc… B       0.328  
 8             1 Recreati…  -6638.       3 TRUE       25 HighSc… B       0.328  
 9             1 Shelter    -7215.       3 TRUE       25 HighSc… B       0.328  
10             1 Wage       96375.       3 TRUE       25 HighSc… B       0.328  
# … with 4,132 more rows, and abbreviated variable names ¹​householdSize,
#   ²​haveKids, ³​educationLevel, ⁴​interestGroup, ⁵​joviality

Show the code

Net_savings <- yearly_financials %>%
  group_by(participantId) %>% 
  summarise(Total_Savings = sum(Total), householdSize = unique(householdSize), haveKids = unique(haveKids), age = unique(age), educationLevel = unique(educationLevel), interestGroup = unique(interestGroup), joviality = unique(joviality))

Net_savings

# A tibble: 1,011 × 8
   participantId Total_Savings household…¹ haveK…²   age educa…³ inter…⁴ jovia…⁵
           <dbl>         <dbl>       <dbl> <lgl>   <dbl> <chr>   <chr>     <dbl>
 1             0        94582.           3 TRUE       36 HighSc… H       0.00163
 2             1        78861.           3 TRUE       25 HighSc… B       0.328  
 3             2        70066.           3 TRUE       35 HighSc… A       0.393  
 4             3        66461.           3 TRUE       21 HighSc… I       0.138  
 5             4        82709.           3 TRUE       43 Bachel… H       0.857  
 6             5         5957.           3 TRUE       32 HighSc… D       0.773  
 7             6         4296.           3 TRUE       26 HighSc… I       0.834  
 8             7        47702.           3 TRUE       27 Bachel… A       0.958  
 9             8        17776.           3 TRUE       20 Bachel… G       0.698  
10             9       136200.           3 TRUE       35 Bachel… D       0.467  
# … with 1,001 more rows, and abbreviated variable names ¹​householdSize,
#   ²​haveKids, ³​educationLevel, ⁴​interestGroup, ⁵​joviality
…
